"Year","Month","DecYear","TWS","SMS","SWS","SNS","GWS","CRU"
2002,8,2002.663014,1.64425515869821,-4.17507756787706,-2.41049906944184,0,8.20067036855557,9.92972091347613
2002,9,2002.745205,-16.2246906191592,-9.53100356904461,-2.24627092013024,0,-4.55114306917018,11.2707049870111
2002,10,2002.830137,-23.7265544560985,-11.2055103108944,-1.5045604133323,0,-11.1411217109973,23.363670598129
2002,11,2002.912329,-19.6557141238445,-6.99770528783494,-0.699938471175086,0,-12.0301926739006,21.395585441843
2002,12,2002.99726,-13.8400913412148,-3.31435860011547,0.377727121492454,0,-10.958870090124,30.4480191240919
2003,1,2003.082192,-8.00205375623503,-0.943637149683374,-0.829126114213751,0,-6.23763605115824,18.2237370232318
2003,2,2003.158904,-2.80270090972932,3.64254822294143,2.03283347097439,0,-8.48818998285714,32.2276999813445
2003,3,2003.243836,7.84587466617511,8.30377595988625,2.56382615010363,0,-2.9972338689952,30.5620217789995
2003,4,2003.326027,18.5644246636019,10.4423095876979,2.82614486982205,0,5.39108241939069,28.4096414109494
2003,5,2003.410959,24.7018733122255,12.1978703662016,4.97123624979206,0,7.63354280051229,29.9435909129204
2003,6,2003.493151,19.6931152017233,10.2691382791488,0.059569507559621,0,9.43229253721158,21.3430721807987
2003,7,2003.578082,14.483189076329,4.52335304408907,-2.11259579818559,0,12.106350205753,14.0647076608346
2003,8,2003.663014,-1.26627515283424,-1.01109104971078,-2.11457098547571,0,1.83628428926545,13.1387368714556
2003,9,2003.745205,-17.4903870856691,-5.22729847136546,-1.36844576613183,0,-10.9991106541201,13.8599204233352
2003,10,2003.830137,-21.5607858656131,-6.27441890842336,-2.07870574162428,0,-13.3226178770978,16.3526465448927
2003,11,2003.912329,-20.0205912727555,-5.73642530346658,-0.507700778244224,0,-13.8602840770145,21.5314631117151
2003,12,2003.99726,-17.7096736007299,-3.62324806557181,-0.318089739355338,0,-13.8249792530202,19.2892290374066
2004,1,2004.081967,-10.2205919011755,0.838866414661634,-0.443493331788908,0,-10.6217739475725,23.6595482389978
2004,2,2004.161202,-7.79856634257634,4.15034594159514,1.23467418782026,0,-13.2230301632235,25.875984448575
2004,3,2004.245902,4.18815997332604,10.3319260465728,5.49496923635832,0,-11.6435191928959,36.8971016305558
2004,4,2004.327869,15.4962766238411,12.3018251349084,1.25854623801119,0,1.98673146082285,21.7222875666111
2004,5,2004.412568,17.2605077483237,10.7987558277991,0.221489801099465,0,6.30254002580005,25.8141493492938
2004,6,2004.494536,13.1000483029382,8.00551649451375,-0.895000333283567,0,6.02671126379486,14.7359709885526
2004,7,2004.579235,6.05519678210658,5.87975421240105,-1.10440828789009,0,1.28501773541309,19.7020615176952
2004,8,2004.663934,-7.6844870321936,-0.261828847621931,-2.23135998874208,0,-5.27885921904644,13.7912901173247
2004,9,2004.745902,-16.1230456487777,-4.18644288023087,-2.26964050257614,0,-9.77384999520252,12.2673273160103
2004,10,2004.830601,-19.9948372438637,-4.91458583571575,-1.50330253450087,0,-13.6865969477168,18.1013034760952
2004,11,2004.912568,-17.5668224386981,-3.75217106858876,-0.815719089792019,0,-13.0662044999019,18.4696145900069
2004,12,2004.997268,-13.8146216826804,-3.11990290910683,-1.12155083304256,0,-9.61035264084629,22.8892955495956
2005,1,2005.082192,-11.9187416845171,-1.0303857962576,-0.32224110756925,0,-10.5998209349572,20.3724072659269
2005,2,2005.158904,-2.3190206056829,4.13413556146231,2.18556394714201,0,-8.64905545132104,32.3764500496235
2005,3,2005.243836,13.0538367725753,10.3053795518862,4.70235437085895,0,-1.90047107351365,38.7721415884951
2005,4,2005.326027,22.2685192034075,11.6612130587253,2.02619753925556,0,8.6748685957832,27.1349472918409
2005,5,2005.410959,20.4393738233712,10.2072946775386,0.175880313461294,0,10.1426464967215,21.7939365304531
2005,6,2005.493151,11.8632398829883,6.87065069786806,-1.54632696013037,0,6.57347407277256,12.4061039476239
2005,7,2005.578082,-2.34273472722793,1.03167580756394,-1.77278737207118,0,-1.64887285629386,9.52121027036709
2005,8,2005.663014,-19.7739442460245,-7.15534693096929,-2.37082552935441,0,-10.380286434034,10.2867687940598
2005,9,2005.745205,-28.3420897887248,-12.6672362465451,-2.40353393542377,0,-13.4313550674057,9.3982049455034
2005,10,2005.830137,-28.9907713803671,-14.2538397543192,-1.12085431802074,0,-13.736702831995,22.3364764634599
2005,11,2005.912329,-25.5187734265617,-10.2709802528455,-0.86777046663599,0,-14.4755545060875,19.4989763713898
2005,12,2005.99726,-20.2746275559993,-5.40577161404738,0.315837917267344,0,-15.2631187590888,30.8316494688075
2006,1,2006.082192,-6.37226925499935,1.36891264754303,1.59450478109341,0,-9.35815725994465,33.996715992055
2006,2,2006.158904,8.76545423891138,6.43839284963906,2.06606165508453,0,0.314368584609588,31.707048444545
2006,3,2006.243836,19.0038793013861,9.61875734614298,4.39943341958149,0,5.08126466461656,33.9302000248686
2006,4,2006.326027,25.5098027824598,11.7485874736353,3.1288682913544,0,10.7457680495497,30.7164898801357
2006,5,2006.410959,24.1435972191976,11.3887734250728,2.34942477969641,0,10.4919246776861,30.3010376684209
2006,6,2006.493151,17.1927232620286,8.19184893737622,-0.734899288543962,0,9.79049490933103,17.448763575183
2006,7,2006.578082,4.81407787320015,2.04372360954748,-2.02362227965919,0,4.80265968692098,12.1438565937763
2006,8,2006.663014,-10.8321206148462,-3.96086212477303,-2.08912918524284,0,-4.85860041425436,12.0121411611425
2006,9,2006.745205,-24.1703760240683,-7.94346751256144,-0.606106692664825,0,-15.7456287722292,9.23136984693243
2006,10,2006.830137,-27.2739563801784,-9.94410218474739,-1.31973141214051,0,-16.1473227866913,17.9764763213219
2006,11,2006.912329,-23.0210517361682,-7.73073180596977,-0.814776549502437,0,-14.5580981999091,26.5748940914235
2006,12,2006.99726,-14.9109856988791,-3.07202628980226,1.35668877560948,0,-13.2384731977529,26.8315828845856
2007,1,2007.082192,-3.51926569279128,2.46046822083626,1.89953604957391,0,-7.86534715276625,30.0717691264254
2007,2,2007.158904,-3.09395845302315,1.1363151759208,-1.22463827959767,0,-3.00052113726724,17.3379789597176
2007,3,2007.243836,5.06539534329744,6.42481579745318,2.58921597930953,0,-3.92321270415144,36.9669686865299
2007,4,2007.326027,18.351497983429,10.3851974059215,3.49093741999685,0,4.55983539071024,31.4558914123697
2007,5,2007.410959,22.9796692719924,10.3142892630323,0.269462598192747,0,12.5026919174318,24.2228860276811
2007,6,2007.493151,17.678378836647,6.57469845625925,-1.27744854154148,0,12.4494533789281,13.2101198931165
2007,7,2007.578082,6.98071848854427,-0.165186666583712,-2.20276828730171,0,9.37511886468114,12.9713964745085
2007,8,2007.663014,-10.6753995397118,-6.83550349968999,-2.39365106848272,0,-1.52203966979335,10.6051863456105
2007,9,2007.745205,-24.3015626069707,-10.989655256106,-2.17237466136586,0,-11.2844973182028,11.8188034057617
2007,10,2007.830137,-25.5680566608077,-12.292179858814,-1.1029875399709,0,-12.3104550845904,21.2560242716302
2007,11,2007.912329,-21.3648905363811,-9.16805739019684,0.041061658602891,0,-12.3045109644982,25.6080855046181
2007,12,2007.99726,-13.5184454603828,-4.46610808148781,0.210913890131693,0,-9.30583553673055,31.3960377571431
2008,1,2008.081967,-1.76241539206529,1.36462224065102,1.7961540603948,0,-4.92702733236613,36.7813304028613
2008,2,2008.161202,8.51689328422381,3.8495575224154,2.20761326455904,0,2.51303527038724,33.5071149156449
2008,3,2008.245902,19.8733134246191,7.50928740886882,2.50628928698422,0,9.93603374876339,36.1041894750392
2008,4,2008.327869,25.3451305305532,8.30143341216294,0.983260595672073,0,16.1656144363654,28.2871148403655
2008,5,2008.412568,26.6914847932695,8.2741911623866,1.10201091464075,0,17.4216057543321,23.8940297020243
2008,6,2008.494536,19.5650951354042,6.33783554182771,-0.680266296685787,0,13.964836282358,16.4041625240699
2008,7,2008.579235,8.16358405156458,0.599672011742219,-2.02836965862407,0,9.61231207526182,11.9216225305136
2008,8,2008.663934,-7.5374084912859,-5.29603040744476,-2.27713235244681,0,-0.0252007582768735,11.5397608405732
2008,9,2008.745902,-19.9209263874035,-7.04462648886131,-1.31624537739018,0,-11.6862422576871,14.4699337596589
2008,10,2008.830601,-23.3283062431989,-8.81228298106813,-2.08194227813121,0,-12.5555028695887,19.3644417633402
2008,11,2008.912568,-19.9503385066949,-6.72164835829666,-0.768754690373832,0,-12.5227767071016,19.9515960272322
2008,12,2008.997268,-12.3048273334006,-2.94967888536499,0.055674579440177,0,-9.4491813881551,26.7754924946643
2009,1,2009.082192,0.527454829639747,1.75521855137366,2.90858640344482,0,-4.09928060209954,34.4152399083401
2009,2,2009.158904,14.3743784992655,6.24480623145274,4.62695766665115,0,3.57201977637808,33.7563835306371
2009,3,2009.243836,28.840470122051,9.8488322729952,5.33711367701576,0,13.7792327145606,38.5865830624357
2009,4,2009.326027,33.5771496495681,10.6090156729667,3.26678139492589,0,19.8483863166125,26.3763700647557
2009,5,2009.410959,32.4149563154163,10.229583589388,1.46300583046074,0,20.8484146670586,20.9080455243587
2009,6,2009.493151,29.0458971158546,8.84962215540522,1.25385776741051,0,19.0417974551998,19.9858381149617
2009,7,2009.578082,21.7114278366131,3.72744961760858,-1.95128191430066,0,20.0253171009968,11.6043219839005
2009,8,2009.663014,5.76789699218533,-3.27324494141189,-2.27037166766999,0,11.3306418692886,9.64805865978941
2009,9,2009.745205,-10.2896383627408,-9.01888294988337,-2.44594501589976,0,1.12021616248895,9.56739376888789
2009,10,2009.830137,-21.8630685452422,-10.8831424878342,-1.66641141153305,0,-9.39750767111901,14.6475002619814
2009,11,2009.912329,-23.7312103982601,-10.7873581317836,-2.09808683286524,0,-10.9411033302808,16.1634443965523
2009,12,2009.99726,-16.108009780035,-6.64117085466928,0.202205748339351,0,-9.70361361782847,25.0826466925601
2010,1,2010.082192,-8.21770682988532,-3.46129729980653,0.34434992352595,0,-5.11046753324412,28.1696281332919
2010,2,2010.158904,1.11417894742693,-0.0968040910494679,0.166967711921185,0,1.07203455556816,27.4068487978996
2010,3,2010.243836,6.29873408168382,1.62430146271811,-0.0702487968157251,0,4.78074393734618,27.5010376909946
2010,4,2010.326027,17.2333152246442,5.33872789080568,2.77544492416473,0,9.20612969428559,27.7321015642044
2010,5,2010.410959,19.3001900122959,5.84944261735415,0.16413314818417,0,13.3656158316966,22.377181259622
2010,6,2010.493151,13.7839785312088,3.67379991716362,-1.53204324148213,0,11.7106521530607,16.1325401785447
2010,7,2010.578082,1.523699066585,-1.64842777126494,-2.10412328288757,0,5.26758778515281,13.7095880268736
2010,8,2010.663014,-13.0394623219988,-8.46218547637171,-2.52224615036437,0,-2.14396121926387,7.26605065132075
2010,9,2010.745205,-27.9633005286423,-14.6691686962397,-2.51399194686311,0,-10.9433132103388,7.55821821562787
2010,10,2010.830137,-31.3575868774733,-18.3458402135016,-2.34515502550519,0,-10.8287144448835,12.9134975667964
2010,11,2010.912329,-27.5696223774752,-15.3427053665354,-1.57200439473659,0,-10.7738095512206,20.423564197662
2010,12,2010.99726,-22.2893728241976,-11.5586511067946,-1.17646103582568,0,-9.63066639941453,22.1846014570683
2011,1,2011.082192,-12.9343623959891,-6.47009440632786,0.0822945615197678,0,-6.60021649201894,23.4254525722341
2011,2,2011.158904,-1.29458691297925,-1.38042876793938,0.569011849556101,0,-0.501854163489033,28.5832584817359
2011,3,2011.243836,9.40493077950365,2.30066102295118,1.74069637171896,0,5.40967754106406,28.8437505661173
2011,4,2011.326027,23.9902039200544,6.98884632351365,4.39620380271503,0,12.7076821014443,31.2305324199352
2011,5,2011.410959,26.5036146714736,7.09095133444005,1.50763813080673,0,18.0067987086839,24.040864788725
2011,6,2011.493151,20.8906315981844,2.59170506099129,-1.44581072743444,0,19.8144647302855,14.8518885693652
2011,7,2011.578082,9.6863899836438,-1.99794807313956,-2.09556760534298,0,13.8044038902296,12.4988565898322
2011,8,2011.663014,-9.0188166334837,-9.95513388092386,-2.51936653558127,0,3.39534101352506,6.25394957430185
2011,9,2011.745205,-24.0604624974547,-15.0883958312618,-2.39296841742512,0,-6.71394665954364,12.4609709564834
2011,10,2011.830137,-24.4520037980543,-15.0887839773142,-2.10426882472518,0,-7.36363846034809,14.3697741962494
2011,11,2011.912329,-24.7599102776931,-12.8195504287845,-1.44088315218981,0,-10.6073574876109,19.7739099522854
2011,12,2011.99726,-10.2381271691847,-9.45706939314975,-0.764260273301158,0,-0.013969757388567,19.8178461060245
2012,1,2012.081967,-1.3063271516327,-3.11152684494335,1.9656563078691,0,-0.111349805855026,30.976928709923
2012,2,2012.161202,15.5446139696544,1.77858592309855,2.50479924658732,0,11.3854243533085,29.8361307821375
2012,3,2012.245902,30.8624009612912,6.35268177023347,4.3838051926178,0,20.2968568957613,31.9236441470207
2012,4,2012.327869,33.215342141159,7.73982507420534,2.04730083571392,0,23.5839178448266,23.5733514511839
2012,5,2012.412568,27.6551301268695,5.85479569165584,0.137177041230848,0,21.8007097811084,18.2456519020365
2012,6,2012.494536,22.2784389583059,0.960500226147911,-1.91774531531424,0,23.356945608381,11.6148007271772
2012,7,2012.579235,10.6033584042248,-2.36142311607174,-0.704010130366591,0,13.7140744488247,11.8705720149456
2012,8,2012.663934,-7.77134348401766,-9.63786582351727,-2.45062309163326,0,4.2301670802762,6.59515968244127
2012,9,2012.745902,-22.5951914830125,-14.923729595273,-2.177898255985,0,-5.61456964591845,10.748071999943
2012,10,2012.830601,-24.8375710291562,-15.6043690355405,-2.07450240556149,0,-7.2679289537612,13.4626332154299
2012,11,2012.912568,-25.6428769204072,-15.8858963828614,-1.91568003242786,0,-7.93106833651304,16.0575401553448
2012,12,2012.997268,-19.0266398765211,-11.4128649104426,-0.756304074079862,0,-6.91619049089913,22.567114731606
2013,1,2013.082192,-5.12984627779595,-3.90176954754095,0.44273156407727,0,-1.66482709628975,24.4071015180425
2013,2,2013.158904,9.02568215039143,1.10882329142149,3.10400864146001,0,4.86595719815663,32.755638905789
2013,3,2013.243836,22.5292501705018,5.75895357323004,3.66937307465266,0,13.23711916729,29.1161042654768
2013,4,2013.326027,31.1956709979825,6.92637084809974,2.01319593977592,0,22.449521421515,25.3324471666458
2013,5,2013.410959,28.2803681442459,6.55395554872877,1.10660582181769,0,20.7572668060565,25.6660243424963
2013,6,2013.493151,22.9464318357681,4.87937557140893,-0.818668011714312,0,18.986743610998,16.4899071995248
2013,7,2013.578082,15.734292662863,1.74693454297429,-1.12947237500465,0,15.1817353187483,13.5870746999345
2013,8,2013.663014,5.75815083779439,-3.8999902469609,-1.87918758496418,0,11.5535595947527,12.9296544825777
2013,9,2013.745205,-6.43544928709295,-7.93184067204714,-2.15278912250409,0,3.6048794678955,11.8037369011564
2013,10,2013.830137,-17.9966941085118,-11.0613997415047,-2.03970099640617,0,-4.9970447955969,16.6513433526171
2013,11,2013.912329,-14.7908454232283,-7.07073574185889,-0.288645597584683,0,-7.49176453351049,19.3433646704288
2013,12,2013.99726,-10.4266478455523,-4.43605878950958,-1.08837115297613,0,-4.92295072206635,16.3212768782961
2014,1,2014.082192,-3.56356533822793,-1.62288331738648,1.09831004892093,0,-3.00344864227835,24.5607450774375
2014,2,2014.158904,11.111062998582,3.05682284098696,3.18752093610762,0,4.94400943637313,29.3070883304515
2014,3,2014.243836,24.1646453833008,7.86201847796254,4.24511240049028,0,12.1678828122044,32.3682452283007
2014,4,2014.326027,31.1925566912865,9.02032527147249,2.42361210635977,0,19.9008145651493,29.7021414381392
2014,5,2014.410959,33.0989520241329,9.02650124092591,0.296266231239404,0,23.9167459979495,23.555439207909
2014,6,2014.493151,29.0874705018857,5.22736027433393,-0.96031319342139,0,24.9358204558,16.8221545138892
2014,7,2014.578082,19.7333443200748,1.2363772828371,-1.6894136783993,0,20.2557175316883,12.9862369276108
2014,8,2014.663014,7.74513263326192,-4.12148861974518,-1.97556631837021,0,13.8513781499097,11.7216092299908
2014,9,2014.745205,-9.17399988768667,-9.23186918101248,-2.16755451203894,0,2.16047449976171,10.7109975133963
2014,10,2014.830137,-17.1758326896112,-11.4141511171757,-1.79558518713549,0,-4.05919169362724,15.4554391089906
2014,11,2014.912329,-13.5047885285772,-9.11088395755599,-0.559000207560431,0,-3.88660976873687,18.7810906901797
2014,12,2014.99726,-3.99369370456448,-6.17039694799021,-0.168568079556323,0,2.34612729753838,22.7139764182111
2015,1,2015.082192,5.91019716229239,-2.27851092786912,1.87592043987724,0,6.36830551827116,27.4116228610911
2015,2,2015.158904,14.7541925117629,1.10793021944237,1.15368806163003,0,12.5866335730842,18.7818354000437
2015,3,2015.243836,25.9953427746626,5.50693829499265,4.1908120637677,0,16.4342855614434,28.9706919207218
2015,4,2015.326027,33.6184349490555,8.4251161031684,3.21984125712476,0,22.1323250339764,31.3988169730978
2015,5,2015.410959,34.6349712513669,9.46312915400507,1.27273292223936,0,24.0536316337727,22.3342024935053
2015,6,2015.493151,28.712684869967,6.03534971244314,-1.01864358936928,0,23.8328270293693,14.0320081997425
2015,7,2015.578082,20.6337618300177,1.68118569397313,0.0377869970400581,0,19.0011131383982,14.3896411769568
2015,8,2015.663014,7.90450398509142,-4.19765721878465,-1.89029021482415,0,14.0084771917074,8.88807194524623
2015,9,2015.745205,-11.1147434679752,-10.9899319147064,-2.48844272810283,0,2.2934379034997,6.60855062129967
2015,10,2015.830137,-15.8812870319723,-15.2962886594694,-2.05047443015349,0,1.39299497215514,10.0544549531284
2015,11,2015.912329,-19.1953901150402,-15.8057498831342,-1.82880298071409,0,-1.62783908945312,10.4190294256236
2015,12,2015.99726,-20.7737309610246,-15.6689340688746,-1.11679998319185,0,-4.04023734898452,15.5244683521859
2016,1,2016.081967,-16.8196024349466,-12.5853027715183,-1.7828642909752,0,-2.49685651061075,14.3425534414484
2016,2,2016.161202,-13.5238045307914,-8.56622363373757,0.776902035922555,0,-5.80698702622727,26.7601466953754
2016,3,2016.245902,0.956460860972366,-0.564875951172276,3.50144057038214,0,-1.98902237700128,27.4967291963861
2016,4,2016.327869,10.0570549113126,4.49914503885423,2.05429370433237,0,3.52544537906145,26.5089232794782
2016,5,2016.412568,19.1701920904755,2.90962091765421,0.125804122328552,0,16.1874111666826,16.2409709746533
2016,6,2016.494536,15.5969252704028,0.665277014997474,-0.478422967445666,0,15.4534866886399,13.6492289619243
2016,7,2016.579235,9.57579741653798,-3.80669960929629,-1.29242878844094,0,14.6762017384375,14.0982582156328
