"Year","Month","DecYear","TWS","SMS","SWS","SNS","GWS","CRU"
2002,8,2002.663014,-0.658035645968295,1.64258171833605,0.354895714303188,-0.388175817784898,-2.26733726082264,10.5745969495466
2002,9,2002.745205,-5.08109750260282,0.00161131888902688,-0.187166737470441,-0.38758280703565,-4.50795927698576,0.809677430698948
2002,10,2002.830137,-4.07820723032411,0.355145538663535,-0.0728051886941308,-0.237540150261108,-4.1230074300324,4.08919361022211
2002,11,2002.912329,-0.9470327321364,0.739714723097564,-0.194880027833404,0.274461681093766,-1.76632910849433,0.685080657995516
2002,12,2002.99726,-1.09469427395497,0.836696711992888,-0.196656802079277,0.429795172388381,-2.16452935625696,0.286451616570834
2003,1,2003.082192,-4.37599809513795,0.834472295635032,-0.197764673029147,0.318505634377907,-5.33121135212174,0.162903227969523
2003,2,2003.158904,-1.40448958391296,0.839872204193047,-0.175899898968481,0.213817418497282,-2.2822793076348,0.134032260169906
2003,3,2003.243836,-2.44842998342906,0.939387666307012,-0.120506350353637,-0.116280659205625,-3.15103064017681,0.653548398806203
2003,4,2003.326027,-3.74568225020185,0.389906341551636,-0.144691382795189,-0.375067484476528,-3.61582972448177,1.62766131297235
2003,5,2003.410959,-6.61811738903321,-1.54500661300761,-0.153888802044003,-0.386944027998251,-4.53227794598334,2.72387101342601
2003,6,2003.493151,-3.75666927490489,-1.88383530951041,0.0473883603772066,-0.388175817784898,-1.53204650798679,8.19000011567146
2003,7,2003.578082,-0.895221160776567,0.32870072841919,0.543380107667775,-0.388175817784898,-1.37912617907863,16.9581454492384
2003,8,2003.663014,7.94183016948815,5.01044202268398,0.864599975968529,-0.388175817784898,2.45496398862053,15.8740325497043
2003,9,2003.745205,6.73986141592234,4.47629318981676,0.0701728748843597,-0.385610091988252,2.57900544320947,5.37741944866796
2003,10,2003.830137,4.0847751826847,4.99306298296572,-0.0477631255945248,-0.31204028153469,-0.548484393151806,3.85596781084614
2003,11,2003.912329,3.68639379666724,5.2239054120768,-0.183069705276264,-0.0306911394857013,-1.3237507706476,1.12137099043015
2003,12,2003.99726,3.03678397287127,5.1766010802531,-0.195318995769469,0.781105914482051,-2.72560402609442,0.443951621050796
2004,1,2004.081967,4.15124061306979,5.11917446822203,-0.199165189179373,0.718987691773388,-1.48775635774625,0.185161293466245
2004,2,2004.161202,6.997673263199,5.12554075462478,-0.10719099503702,1.03079625623924,0.948527247372001,0.713306464399061
2004,3,2004.245902,5.02415347333054,5.65362296233529,0.180939065399856,0.520590321465712,-1.33099887587032,0.837258077905543
2004,4,2004.327869,6.70696185116673,5.51049332108503,-0.0637331892691079,-0.337274742716878,1.59747646206768,0.949838726558993
2004,5,2004.412568,4.30048624796439,3.67905374841619,-0.00913396271766543,-0.385202612818552,1.01576907508442,5.08387106772392
2004,6,2004.494536,-0.343189443598099,-0.312983463423043,-0.066910479394147,-0.387868559717898,0.424573058936989,4.84725815942211
2004,7,2004.579235,1.50542730431656,0.6954201229569,0.384515585939373,-0.388175817784898,0.813667413205188,13.7968550835886
2004,8,2004.663934,0.374908389237232,-0.259993344888709,0.198414168430343,-0.388175817784898,0.824663383480496,10.819274403972
2004,9,2004.745902,1.47855498679952,-0.613423606616012,-0.0852008021142715,-0.387925548963943,2.56510494449374,3.80153233005155
2004,10,2004.830601,-0.797471615236829,-1.26644993054977,-0.152383769210262,-0.334606748545779,0.955968833068979,1.62443550786664
2004,11,2004.912568,-0.147553278512946,0.520332329449016,-0.0979935758364773,-0.0576622416311116,-0.512229790494374,1.38951615614276
2004,12,2004.997268,-1.99758199124307,0.8760784784083,-0.177237705584625,0.886092529816839,-3.58251529388358,0.992258078821244
2005,1,2005.082192,-1.42909795099708,0.896921981287441,-0.188086479710384,1.43251890026837,-3.5704523528425,0.387338716200282
2005,2,2005.158904,1.07382812639587,0.90456278145588,-0.127090867491619,1.44810038253267,-1.15174417010106,0.208467746574071
2005,3,2005.243836,1.73740034587146,1.12698197705405,-0.0571068659304049,0.852531381827074,-0.185006147079256,0.40209678017324
2005,4,2005.326027,0.816769452708861,2.05698418727119,0.165658809680236,-0.294518559793791,-1.11135498444877,5.3330645984219
2005,5,2005.410959,4.28769130846755,2.58221228222968,-0.00326015652639652,-0.380643819884148,2.08938300264842,5.55435494146039
2005,6,2005.493151,3.84517057874453,2.66517778273826,0.281023711272913,-0.38795847907959,1.28692756381294,11.346693752658
2005,7,2005.578082,4.03340228428979,2.59344054195463,0.324878683155841,-0.387953653368392,1.50303671254771,15.1197583106256
2005,8,2005.663014,6.15722837887218,3.12273440643939,0.602536231405725,-0.388155136203114,2.82011287723018,10.1831453692529
2005,9,2005.745205,1.82937885408532,1.63460071850482,0.000669649663690933,-0.387207403805438,0.581315889722248,5.0958871902958
2005,10,2005.830137,1.43428542496521,0.999859014002409,-0.167245963446232,-0.371697409880692,0.973369784289723,1.41516131604871
2005,11,2005.912329,0.132270260511589,0.871628489266343,-0.181857318188715,-0.235482402976617,-0.322018507589423,0.585241943441572
2005,12,2005.99726,2.75214279864398,0.848555171627053,-0.199478737562707,0.131572234304548,1.97149413027509,0.480564523560386
2006,1,2006.082192,1.28684302269349,0.842476568820839,-0.19701215692511,0.553933179821565,0.0874454309761968,0.41959678146147
2006,2,2006.158904,1.3499850833199,0.893545397868904,-0.149081059998494,0.477044230565775,0.128476514883714,0.357500005897976
2006,3,2006.243836,2.29884543033992,1.03767150495596,-0.073704026659427,0.258962317830959,1.07591563421243,0.831209692983858
2006,4,2006.326027,3.86810363002396,1.10713587090167,-0.025898351383476,-0.247062777885641,3.0339288883914,2.43838713861281
2006,5,2006.410959,1.89638562878793,-0.336496531104987,-0.178930866660434,-0.386672045693867,2.79848507224721,1.49508067138733
2006,6,2006.493151,4.24011159314437,-0.175134118773421,0.253389650634175,-0.388175817784898,4.55003187906851,12.1145162890034
2006,7,2006.578082,4.32830316573774,1.6397814076205,0.683640751531056,-0.388175817784898,2.39305682437108,15.7312905896095
2006,8,2006.663014,7.72465572634184,3.0808322530051,0.300463718792734,-0.388175817784898,4.73153557232891,8.99153243341754
2006,9,2006.745205,6.04341962490753,1.22548037886894,-0.00923847978549167,-0.385693559716079,5.21287128554016,4.18854845262343
2006,10,2006.830137,1.8678014582179,-0.141135047094613,-0.127258091997449,-0.36573031827413,2.5019249155841,2.23838713015279
2006,11,2006.912329,1.97353034136151,0.200207093783787,-0.172053705241102,0.0558021413326842,1.88957481148614,0.892338725059263
2006,12,2006.99726,2.40575348028414,0.204339615993785,-0.199708673043324,0.338181355654098,2.06294118167958,0.0968548403752427
2007,1,2007.082192,2.2064144268922,0.190056922496189,-0.198161834326339,0.380069627166621,1.83444971155573,0.312822587067081
2007,2,2007.158904,3.16052135740381,0.24474967928938,-0.125125963845171,0.831614499717816,2.20928314224179,0.634677428884372
2007,3,2007.243836,4.35399168142214,0.745638078396221,0.0519452621327565,1.19849820335148,2.35791013754169,2.07588713399826
2007,4,2007.326027,5.38585969083499,1.13140488996896,-0.0413876394935638,-0.214716948281988,4.51055938864158,1.91862907525032
2007,5,2007.410959,2.87793555375413,-0.292117936195042,-0.114402609225729,-0.387261795928596,3.6717178951035,6.21524204438733
2007,6,2007.493151,0.266358735758337,-1.96190460608577,-0.0495608013487421,-0.388137511333765,2.66596165452661,5.01524202131456
2007,7,2007.578082,-0.456213175475795,-2.16460847619766,0.175985001779001,-0.388175817784898,1.92058611672777,8.97096788652481
2007,8,2007.663014,-0.410635583873439,-2.26680424718813,0.12991429390397,-0.388175297493514,2.11442966690423,8.29056469394315
2007,9,2007.745205,-3.4848735434935,-3.53710334936183,-0.131438737820266,-0.388034016710138,0.571702560398732,3.50048393895549
2007,10,2007.830137,-5.4579984845786,-3.47972792152161,-0.160870479550887,-0.34416346145621,-1.4732366220499,2.12798391465218
2007,11,2007.912329,-5.58463381588707,-3.61094793543426,-0.197033060174925,-0.279558613741725,-1.49709420653616,0.345161295970601
2007,12,2007.99726,-5.84061739670326,-3.61251315941459,-0.198370866618408,-0.0611553979873079,-1.96857797268296,0.745967756932782
2008,1,2008.081967,-6.24920368745045,-3.61076493595602,-0.198600802050754,0.546583024206527,-2.9864209736502,0.00975806470359525
2008,2,2008.161202,-7.09494057347948,-3.60757787718614,-0.189967769952838,0.118526069241532,-3.41592099558204,0.0977419369944161
2008,3,2008.245902,-6.20605604065659,-3.16737703071212,-0.056939641235204,-0.153015569130394,-2.82872379957887,2.2428226201765
2008,4,2008.327869,-6.2737965856884,-2.73638985864303,-0.141200544145715,-0.366315199541577,-3.02989098335808,3.1802420016258
2008,5,2008.412568,-5.7970337757135,-2.48840855846207,-0.0196691896000293,-0.386602326640943,-2.90235370101045,7.22072592858345
2008,6,2008.494536,-4.72740096209972,-2.8341306845576,-0.00884131814668931,-0.388175817784898,-1.49625314161053,7.29112916300374
2008,7,2008.579235,-1.29639088179155,-0.719113127894116,0.658891328654317,-0.388175817784898,-0.847993264766849,12.9454034497661
2008,8,2008.663934,-3.04622859146916,-1.74835683795439,0.0238513259266109,-0.388175817784898,-0.933547261656485,8.72451628408124
2008,9,2008.745902,-3.53526573595088,-2.50066422306447,-0.0618309949840798,-0.387418828549449,-0.585351689352876,4.59120975463621
2008,10,2008.830601,-5.2716928955217,-2.84610534243732,-0.157128802250814,-0.367601546428181,-1.90085720440539,2.27967746334691
2008,11,2008.912568,-4.2794340761501,-2.54821545814039,-0.19329138278945,-0.0657150627039515,-1.4722121725163,0.796048404516712
2008,12,2008.997268,-5.74312719168058,-2.50003205326982,-0.197430221459121,0.444939157521398,-3.49060407447303,0.520322590892113
2009,1,2009.082192,-5.85982281926464,-2.50600216870072,-0.19030222145974,0.794198530970908,-3.95771696007509,0.377419361784574
2009,2,2009.158904,-2.95560379366609,-2.48213431427281,-0.175878995817065,1.11710628103908,-1.4146967646153,0.536612910945569
2009,3,2009.243836,-0.840385145549892,-2.31326066304324,-0.0797241582840143,0.991436548445359,0.561163127332007,1.32935486474345
2009,4,2009.326027,0.176500122685484,-1.64843957737294,0.0594077145524768,-0.279693427261775,2.04522541276772,3.72903231843825
2009,5,2009.410959,-2.13372845669227,-2.70322338357774,-0.164842092064229,-0.388111301656803,1.1224483206065,2.13959680911033
2009,6,2009.493151,-1.89401503993982,-0.62928731869992,0.803311715357948,-0.388175817784898,-1.67986361881295,14.983871201546
2009,7,2009.578082,4.80073300461351,3.43599756719879,0.510603849817308,-0.388175817784898,1.24230740538231,12.8835486196703
2009,8,2009.663014,3.55583867478632,1.35458447081702,0.298979583850721,-0.388175817784898,2.29045043790347,8.1010485541436
2009,9,2009.745205,5.31218897068185,0.88293283388774,-0.0953179638759456,-0.387670172626793,4.91224427329684,3.38306458150187
2009,10,2009.830137,0.879901609907895,-0.300946643330535,-0.163211641177875,-0.36056265451412,1.70462254893042,2.22645165151165
2009,11,2009.912329,-2.14468775410794,-0.444164807284208,-0.19088751176948,0.0487483748128916,-1.55838380986714,0.94516130416624
2009,12,2009.99726,2.00242566602839,-0.716645003525617,-0.194064802056042,1.18450172645513,1.72863374515492,0.955080657812857
2010,1,2010.082192,3.56342483726061,-0.709519874816116,-0.182735253670963,2.63031312079282,1.82536684495488,0.311532262929024
2010,2,2010.158904,-0.605148054594624,-0.683247917464801,-0.116409318157603,4.07708874639086,-3.88257956536308,0.720645174287981
2010,3,2010.243836,0.986521764197101,-0.440806721061605,0.0526977795159762,4.7096589931181,-3.33502828737537,1.75806454804636
2010,4,2010.326027,3.19778316394751,0.927516765789502,0.188276104458538,0.796677006623303,1.28531328707616,3.72048392757293
2010,5,2010.410959,5.15720967755365,3.48959877447049,0.412505001394238,-0.382901234053865,1.63800713574278,9.21532270369991
2010,6,2010.493151,1.92671583722747,-0.113149458801691,-0.0962795122386328,-0.388175683376297,2.52432049164409,4.03225813373443
2010,7,2010.578082,0.297180332724105,-0.143889357733287,0.490975716227616,-0.388175817784898,0.338269792014674,14.6906454147831
2010,8,2010.663014,3.48491722849866,1.29095782728239,0.41474165184247,-0.388175817784898,2.1673935671587,12.9215324678729
2010,9,2010.745205,1.7774318417827,-0.566284066878156,-0.138315897719059,-0.379141005986414,2.86117281236633,1.72717745111835
2010,10,2010.830137,0.0201394967283707,-0.322628348928442,-0.0829432548752649,-0.319591790931974,0.745302891464052,2.60709682164654
2010,11,2010.912329,-0.904944781505626,0.0282366963575514,-0.128324157036224,0.383893403373284,-1.18875072420024,2.07782261256249
2010,12,2010.99726,0.156507724757625,0.625589170516361,-0.191765447205314,2.23191041990717,-2.50922641846059,1.34814519247701
2011,1,2011.082192,1.53278239197591,0.597782057372656,-0.198391769819952,3.60208312817241,-2.46869102374921,0.150241938089171
2011,2,2011.158904,2.90905705919419,0.63966596284495,0.0472629399463141,3.1133942975737,-0.891266141170774,0.269193552915127
2011,3,2011.243836,0.668318264621587,1.13067423186269,0.328265001044752,1.76971608829196,-2.56033705657782,0.434032262729541
2011,4,2011.326027,-1.13369243652117,2.10232558831367,0.0815024184386187,-0.330797322514173,-2.98672312075929,1.7330645484309
2011,5,2011.410959,-1.6693863779104,0.919703977379931,0.0118110677087664,-0.386524152829228,-2.21437727016987,7.24500012243948
2011,6,2011.493151,-2.1420235806871,0.0197414317850694,-0.0219894468094136,-0.388175817784898,-1.75159974787786,7.11137108956614
2011,7,2011.578082,0.0621134100845808,-0.258592552866804,0.454625000282372,-0.388175817784898,0.25425678045391,14.0820970227641
2011,8,2011.663014,0.536780840510453,0.470729173040061,0.21862758586331,-0.388175817784898,0.23559989939198,9.23193563030612
2011,9,2011.745205,-3.73119899477759,-1.41586650879839,-0.148892930859698,-0.379265333830844,-1.78717422128866,2.65274197978358
2011,10,2011.830137,-7.39576704703765,-2.01395993584312,-0.183111511920707,-0.362987342015764,-4.83570825725806,1.42556454289344
2011,11,2011.912329,-4.80946476935623,-2.11232048667933,-0.18390583445568,-0.136197728436935,-2.37704071978429,1.00629033907767
2011,12,2011.99726,-5.52019298500707,-2.05875495120128,-0.199457834355594,0.086543614403721,-3.34852381385393,0.20475806802391
2012,1,2012.081967,-6.74738329796892,-2.08106111149359,-0.200001318199123,0.0544913275452008,-4.5208121958214,0.0466129040645976
2012,2,2012.161202,-5.88379138742236,-2.09242605067755,-0.189445189158613,0.0303287722995783,-3.63224891988577,0.316129036259747
2012,3,2012.245902,-3.39560394407338,-1.8604223149026,-0.0968020928453431,0.120975326396631,-1.55935486272207,1.72661293398949
2012,4,2012.327869,-4.43797417639558,-1.68583779234765,-0.0358900923763601,-0.345094097479351,-2.37115219419222,3.75467748872695
2012,5,2012.412568,-4.40960448020459,-2.01805429194929,-0.147680543918818,-0.387018689780754,-1.85685095455573,3.28346779884831
2012,6,2012.494536,-1.92152510659425,-0.963707550838246,0.252699841140107,-0.388175817784898,-0.822341579111211,13.1537905723818
2012,7,2012.579235,-0.278680732011256,0.100548997466465,0.888722298643927,-0.388175817784898,-0.879776210336751,16.2429841564548
2012,8,2012.663934,1.54078324034211,2.31575228797126,0.607615709005859,-0.388175817784898,-0.994408938850106,10.0310485901371
2012,9,2012.745902,0.935253010367378,3.38900825712263,0.320070940733446,-0.387894097357643,-2.38593209013106,9.56774212621873
2012,10,2012.830601,2.86951505858077,4.76449089265913,0.0109122302725953,-0.333260235131883,-1.57262782921908,4.09677428276308
2012,11,2012.912568,4.80377710679416,5.99105395688439,0.0152810043653295,0.818488287599683,-2.02104614205525,2.37588713207553
2012,12,2012.997268,6.03127844977344,6.32919402232368,-0.188546350381991,2.31836828153062,-2.42773750369887,1.02532259860346
2013,1,2013.082192,8.906436644852,6.26089859993502,-0.157630479849065,3.12105700937092,-0.317888484604875,0.28572580997021
2013,2,2013.158904,8.49144498428087,6.29018754194134,-0.0632524142337378,3.70114635850235,-1.43663650192909,0.997016148317245
2013,3,2013.243836,8.39615585082123,6.49974876425233,0.226027326127458,3.99171335395388,-2.32133359351245,1.25854841047718
2013,4,2013.326027,8.30086671736158,7.51721388644062,0.324356097714597,0.674994488455461,-0.215697755249102,2.36540327841236
2013,5,2013.410959,7.90656207303535,5.90831454179254,0.0576727470810066,-0.387330214243662,2.32790499840547,5.34120976309623
2013,6,2013.493151,5.44328240316117,2.24537707302153,0.180792747684338,-0.388175817784898,3.4052884002402,8.99467759901477
2013,7,2013.578082,11.0154178563025,6.21207829352623,1.48958552296899,-0.388175817784898,3.70192985759214,21.2479035162157
2013,8,2013.663014,10.3850248815427,8.38950903448641,1.22570319955625,-0.388105448376769,1.15791809587677,15.7813712519984
2013,9,2013.745205,9.75463190678287,7.45711070630133,-0.0293473834794791,-0.381191812332554,2.70806039629357,3.92016137646091
2013,10,2013.830137,9.12423893202307,6.29574611412215,-0.0349494469107378,-0.36482592148924,3.22826818630089,3.76532264063435
2013,11,2013.912329,8.89531337051028,6.5039635895172,-0.163525189719019,0.810798779909515,1.74407619080258,1.72685486568559
2013,12,2013.99726,11.1291887987405,6.48179182678736,-0.190218608473476,2.65935777316253,2.17825780726412,0.394354845775712
2014,1,2014.082192,9.40251994956141,6.39083389692043,-0.193542221527308,2.68943891415756,0.515789360010733,0.254758068053953
2014,2,2014.158904,9.47743365895447,6.34340820297393,-0.0541804157555703,2.61456032420441,0.573645547531699,0.272258069570507
2014,3,2014.243836,9.55234736834753,6.83591634582402,0.219714555252851,0.934968439668282,1.56174802760237,0.706612915377463
2014,4,2014.326027,6.40709857135415,5.95385631014537,-0.183216027872729,-0.378236973750284,1.01469526283179,0.596532270600719
2014,5,2014.410959,9.31011032744253,5.00837512520326,0.100817005288049,-0.38455823184113,4.58547642879234,1.12064517871026
2014,6,2014.493151,7.41614057888998,3.32149334006046,0.237858555036757,-0.388175817784898,4.24496450157767,6.82241948650729
2014,7,2014.578082,6.21395445001064,3.53867231861512,0.58516564887031,-0.388175817784898,2.4782923003101,10.0655646939431
2014,8,2014.663014,5.0117683211313,1.66968955642067,0.181001783204999,-0.388175817784898,3.54925279929052,7.24572591473979
2014,9,2014.745205,2.98642203590404,1.63842613066671,0.0709671989250186,-0.385094097339258,1.66212280365156,6.03354846585181
2014,10,2014.830137,2.69423896202627,0.980426844515009,-0.139841834380011,-0.33687300828207,2.19052696017334,1.80193551817248
2014,11,2014.912329,5.18138970720132,0.976430307706381,-0.192434350440052,-0.110508477929753,4.50790222786474,0.587016139203502
2014,12,2014.99726,3.06665051613789,0.93267838757159,-0.197053963391322,1.26173583890244,1.06929025305519,0.904354856091161
2015,1,2015.082192,0.951911325074468,0.885655143369452,-0.185933447264894,1.32727200836987,-1.07508237939996,0.1980645196272
2015,2,2015.158904,1.7790441242185,0.965797283854078,-0.027842350707006,1.3655015965247,-0.524412405453266,1.01975808066706
2015,3,2015.243836,5.12752029877798,1.54486759837871,0.211541393575905,1.36656624123056,2.0045450655928,0.693145170952043
2015,4,2015.326027,6.20287561155897,2.20942616534123,-0.0695233824202723,-0.281681059254032,4.34465388789204,2.68145166520149
2015,5,2015.410959,5.27163424598831,1.32799440145767,0.0658250046875302,-0.386555500430385,4.2643703402735,8.24274209853142
2015,6,2015.493151,5.44380262183861,0.483921317268627,0.0981413914802209,-0.388175817784898,5.24991573087466,10.9919356807586
2015,7,2015.578082,3.73832583639858,-1.77402734810032,-0.0388374467181599,-0.388175817784898,5.93936644900196,8.21927437320832
2015,8,2015.663014,4.28607654458059,-1.87656587252419,0.0692531348537463,-0.388175817784898,6.48156510003594,8.92717757686492
2015,9,2015.745205,1.27740777175386,-1.80731716507591,-0.0606186097995243,-0.385751220998579,3.53109476762787,4.67258071130322
2015,10,2015.830137,0.708232822203417,-1.00677526166087,-0.123411898503999,-0.356938044325853,2.19535802669414,2.58330649406679
2015,11,2015.912329,0.139057872652972,-1.13163309506557,-0.188776285944298,-0.283726086649337,1.74319334031218,0.60346775016477
2015,12,2015.99726,-0.430117076897472,-0.995254107787862,-0.166305317880354,0.908526969399049,-0.177084620628305,1.23451615014384
2016,1,2016.081967,1.92249039130999,-0.992704793769642,-0.198977060137119,1.10573716755919,2.00843507765757,0.167822584095261
2016,2,2016.161202,4.17350538650262,-0.901107157629481,-0.103950996189225,1.19448909414474,3.98407444617658,0.309435488692214
2016,3,2016.245902,1.83177559933872,-0.364742687591759,0.126444362340005,0.961000164590642,1.10907375999983,0.952258084474071
2016,4,2016.327869,3.97978352135926,-0.21588697030385,-0.11354557759854,-0.358614662281432,4.66783073154308,2.71112907625014
2016,5,2016.412568,6.1277914433798,0.807684361687454,0.265827067743084,-0.388137316223939,5.4424173301732,6.74911301520563
2016,6,2016.494536,5.95232944017435,0.898071354861084,0.508429903689884,-0.388175817784898,4.93400399940828,13.455484058011
2016,7,2016.579235,4.41347038718779,0.879150321351768,0.27220255274495,-0.388175817784898,3.65029333087597,11.7114518473225
