"Year","Month","DecYear","TWS","SMS","SWS","SNS","GWS","CRU"
2002,8,2002.663014,-0.0941378367688394,0.0304073310330462,-0.012295626805838,-0.075309726383189,-0.0369398146128585,0.350408168597033
2002,9,2002.745205,-1.40810446883433,0.000135029153581808,-0.00839440229394345,-0.075309726383189,-1.32453536931078,1.02612246464254
2002,10,2002.830137,-0.598344974574251,-0.106879490119132,-0.0135387288461469,-0.0750737981407396,-0.402852957468232,0.0580102053756008
2002,11,2002.912329,-0.934490101511569,-0.17194643859137,-0.0137106472100998,-0.0684797094034611,-0.680353306306638,0.0204591838148784
2002,12,2002.99726,-1.2897038439827,-0.157571121456646,-0.0112376676509111,0.211379129515435,-1.33227418439057,0.299438779147304
2003,1,2003.082192,-0.921767825573762,-0.152549425352263,-0.0134726063963946,0.214479771689613,-0.970225565514717,0.0352551027562241
2003,2,2003.158904,-2.64539588370888,-0.154915716498456,-0.0109070554056733,0.157231456999084,-2.63680456880383,0.427704089363011
2003,3,2003.243836,-1.72808847968625,-0.0728545598907485,-0.00440060637988058,0.0455920991362417,-1.69642541255186,0.375867351327015
2003,4,2003.326027,-0.144643564075194,0.238782588720043,0.0121167813429626,-0.072847736650791,-0.322695197487409,0.856275524472704
2003,5,2003.410959,2.10060912075991,0.0819624418285076,-0.0103119533684737,-0.0738973662259036,2.10285599852578,0.964948997205618
2003,6,2003.493151,1.34891683649734,-0.0696477598979509,-0.00568338201971339,-0.075309726383189,1.49955770479819,2.65530616312611
2003,7,2003.578082,0.597224552234769,-0.159780879097604,-0.0119782390702835,-0.075309726383189,0.844293396785846,1.20760206339919
2003,8,2003.663014,0.44415266262601,-0.289912235933882,-0.0121501574283636,-0.075309726383189,0.821524782371444,2.04795921335415
2003,9,2003.745205,1.71657414894067,-0.340212671336445,-0.00738934110375158,-0.0752987569950614,2.13947491837593,2.68153065661995
2003,10,2003.830137,-0.129738627513226,-0.237889392703746,-0.0106690145766986,-0.0750392359328084,0.193859015700027,0.303622453663574
2003,11,2003.912329,-0.286865559850085,-0.138724944960377,-0.00721742276094088,-0.0501658489758432,-0.0907573431529246,0.511275519217764
2003,12,2003.99726,-0.468780862839114,-0.192711314436707,-0.013261014563295,-0.0338875734534208,-0.228920960385692,0.0329081641738208
2004,1,2004.081967,0.0704744403434381,-0.178651142492257,-0.0110128513257468,0.129831239763387,0.130307194398054,0.431377557710725
2004,2,2004.161202,1.1948280313525,-0.185931761106032,-0.0128510553868113,0.0583970793806151,1.33521376846473,0.0431632661279671
2004,3,2004.245902,0.780789353904667,-0.211490565834275,-0.00274754521594375,-0.0429004929144704,1.03792795786936,0.44816327254687
2004,4,2004.327869,-1.02686027616965,0.0713215243077655,0.0261876378588275,-0.0752309848866467,-1.04913845344959,0.5263265386832
2004,5,2004.412568,0.369021199037097,0.237743084733913,-0.0022185655462765,-0.0751061384902961,0.208602818339756,1.57775513128358
2004,6,2004.494536,-0.0209792960089116,0.00985606844999475,-0.0117798717151537,-0.075309726383189,0.0562542336394364,1.18112246844233
2004,7,2004.579235,0.651805326010944,-0.145043503887774,-0.0127188104861321,-0.075309726383189,0.884877366768039,0.71306123648371
2004,8,2004.663934,1.32599456570341,-0.227689632628316,-0.0110393002840357,-0.075309726383189,1.64003322499895,1.52331635781697
2004,9,2004.745902,0.106889820835369,-0.360815934965475,-0.0136577492512377,-0.075309726383189,0.556673231435271,0.13061224744104
2004,10,2004.830601,-1.22993519046238,-0.438351496589706,-0.0131023206855338,-0.0740133965913206,-0.704467976595817,0.208469391336703
2004,11,2004.912568,-1.32278887776088,-0.469581328711922,-0.0128246064038565,-0.0500764781820686,-0.790306464463035,0.171479594262735
2004,12,2004.997268,-1.73077139317878,-0.476716182068573,-0.012837830893572,0.0367975794841423,-1.27801495970078,0.192448982600199
2005,1,2005.082192,-0.763015142713868,-0.481882645751723,-0.0131287696649649,0.138601068114412,-0.406604795411592,0.0527551029713786
2005,2,2005.158904,-0.869215587486685,-0.271778948756479,0.0921249447116559,0.39173901722729,-1.08130060066915,0.361275516678484
2005,3,2005.243836,0.471943582163388,0.0920770063470469,-0.000896116546532115,0.0555592694646623,0.325203422898211,0.276020412416939
2005,4,2005.326027,0.528470135518215,0.302665456362246,0.00410274049781952,-0.0625041991150974,0.284206137773246,0.727602053722557
2005,5,2005.410959,-0.378249813160472,0.369291007648647,0.0119316384775484,-0.0752195354704971,-0.68425292381617,2.01137758444767
2005,6,2005.493151,1.81455047952726,0.316544076762967,-0.00814313702223603,-0.075309726383189,1.58145926616972,0.742346952034503
2005,7,2005.578082,2.13357933199075,0.384386535780188,0.0192315565526959,-0.075309726383189,1.80527096604106,3.3956633290466
2005,8,2005.663014,2.34742689768009,0.706072873121039,0.0297318017944161,-0.075309726383189,1.68693194914782,3.59117352427268
2005,9,2005.745205,1.0334687953572,0.532813640562881,-0.00963750438006054,-0.075309726383189,0.585602385557566,1.27107144747005
2005,10,2005.830137,0.383660647549651,0.449824516278166,-0.0133800349683857,-0.0746363392742458,0.0218525055141164,0.147602043160218
2005,11,2005.912329,0.729483571876667,0.350544206061255,-0.0113831370260364,-0.0673815801817561,0.457704083023205,0.163367350597163
2005,12,2005.99726,0.151354743719109,0.320449799064192,-0.0129039533386261,0.00471125765095998,-0.160902359657417,0.188469389506749
2006,1,2006.082192,0.298097664328533,0.339434670368653,-0.00274754522768946,1.0561910122327,-1.09478047304513,0.502193888961052
2006,2,2006.158904,0.679250511417951,0.727829001570868,0.163404944826978,0.834955129726625,-1.04693856470652,0.323928576555787
2006,3,2006.243836,0.388479377369562,1.17235151635812,0.0713228222176133,0.0536371969197917,-0.908832158125967,0.0297448985164567
2006,4,2006.326027,1.3721857127726,0.937603589155566,-0.00949203500023695,-0.0724052194838011,0.516479378101069,0.395867354593867
2006,5,2006.410959,0.845864712434471,0.738128522221557,-0.00678101457213814,-0.075309726383189,0.189826931168242,0.706836748396864
2006,6,2006.493151,1.90305866663169,0.673335571960249,-0.00253595332411561,-0.075309726383189,1.30756877437874,1.50061227131863
2006,7,2006.578082,1.07360937762951,0.750909143071115,0.00797751600561704,-0.075309726383189,0.390032444935971,3.38862251675859
2006,8,2006.663014,1.89434697448633,0.508808489228111,-0.012917177835389,-0.075309726383189,1.4737653894768,0.297142862787052
2006,9,2006.745205,1.25727138261596,0.338972636358496,-0.0132610145644695,-0.075309726383189,1.00686948720512,0.0789285725248711
2006,10,2006.830137,-0.0778709300546971,0.209523884405313,-0.013618075782091,-0.0752065334945492,-0.198570205183369,0.134132655208208
2006,11,2006.912329,0.00634137649255004,0.232843403184318,0.00520037329572953,-0.0638461209992268,-0.16785627898827,0.321836741169801
2006,12,2006.99726,-0.489893494959831,0.379070755680326,-0.0135122798643666,-0.00990682999070676,-0.845545140785084,0.0328571434341827
2007,1,2007.082192,-0.44715615455851,0.330294005869933,-0.0136841982306688,-0.0148093975493055,-0.748956564648468,0.0228571430951053
2007,2,2007.158904,-0.411435291526817,0.280001890310245,-0.0103913003020687,-0.0567117856123559,-0.624334095922637,0.00882653077418099
2007,3,2007.243836,1.28836111845133,0.207121586541766,-0.00404354519984536,-0.0576632489057731,1.14294632601518,0.0710714297977333
2007,4,2007.326027,-0.137071061011744,0.00440463984866642,-0.013618075782091,-0.0748961209375721,-0.0529615041407473,0.13102040982292
2007,5,2007.410959,-0.790753775737735,-0.131281158821594,-0.00891015745627659,-0.075309726383189,-0.575252733076675,0.480816336949261
2007,6,2007.493151,-0.0403924758775241,-0.105412706351985,0.00296543443161445,-0.075309726383189,0.137364522426035,0.587295928962377
2007,7,2007.578082,-0.00785327990790614,0.119022860135377,0.025909923766256,-0.075309726383189,-0.0774763374263497,2.88397964166135
2007,8,2007.663014,0.490812059980168,0.161695558426357,-0.00670166760213145,-0.075309726383189,0.411127895539132,0.762448993021128
2007,9,2007.745205,0.243715277406233,0.111080535083731,-0.008381177864131,-0.075301818220053,0.216317738406687,2.75260208261256
2007,10,2007.830137,-0.773258910744158,0.0268746862384387,-0.0127320349734985,-0.0750909969607595,-0.712310565048339,0.216581638043328
2007,11,2007.912329,-2.98157493903368,-0.0624772782982354,-0.0136841982306688,-0.0701634678401247,-2.83524999466465,0.0149489799704479
2007,12,2007.99726,-2.83963701259174,-0.109618274562796,-0.0135784023129444,-0.0240269744238396,-2.69241336129216,0.0303571432296719
2008,1,2008.081967,-1.44934252442238,-0.120673257256319,-0.00848697377128424,0.416354692499064,-1.73653698589384,0.327397964894772
2008,2,2008.161202,-0.876505072070842,-0.0726696044124255,0.0114423324567371,0.591527889349447,-1.4068056894646,0.302602046792757
2008,3,2008.245902,-0.843615959065208,-0.103427285411503,-0.0120972594730251,-0.0164857475888353,-0.711605666591845,0.122602042844709
2008,4,2008.327869,0.0487337387694697,-0.16159892980022,0.00258192419815019,-0.0752757127771608,0.2830264571487,0.0615306131579742
2008,5,2008.412568,-0.64735935888126,-0.247792611407357,-0.00738934108260931,-0.075309726383189,-0.316867680008105,0.506224498700122
2008,6,2008.494536,2.08070837041998,-0.309599215088121,-0.0104045247741657,-0.075309726383189,2.47602183666546,0.505255112204017
2008,7,2008.579235,0.4664546371306,-0.268597680474093,0.00225131185424844,-0.075309726383189,0.808110732133633,2.69142861901497
2008,8,2008.663934,0.683393129486736,-0.186212911418176,0.00291253642107116,-0.075309726383189,0.94200323086703,2.78903064657839
2008,9,2008.745902,0.164056750300487,-0.18619130116881,-0.0057891777682996,-0.075309726383189,0.431346955620786,0.488367353805474
2008,10,2008.830601,-2.71113024150523,-0.221589300560378,-0.01047064723214,-0.0751964939926331,-2.40387379972008,0.873979610919344
2008,11,2008.912568,-3.0596641042962,-0.293157539941801,-0.013313912519808,-0.0577288588282726,-2.69546379300632,0.135663268217171
2008,12,2008.997268,-2.91482794398906,-0.333785922087247,-0.0118988920991022,-0.0283943216458417,-2.54074880815687,0.0391326538268097
2009,1,2009.082192,-2.48368812394671,-0.358608160562636,-0.0133800349683857,-0.0121698319634045,-2.09953009645229,0.0402551029029549
2009,2,2009.158904,-1.69824807138016,-0.392535258562868,-0.012084034973913,-0.0143118212381509,-1.27931695660523,0.0524489804456124
2009,3,2009.243836,0.0187208369132289,-0.513096838801161,-0.0131155451787731,-0.0584056777648607,0.603338898658024,0.0890816341819508
2009,4,2009.326027,-0.948678875433331,-0.664931846515839,-0.0124939941609678,-0.0750696753666734,-0.19618335938985,0.181530616842971
2009,5,2009.410959,-0.446023000165745,-0.767585329954088,-0.0112112186562106,-0.0753094795102442,0.408083027954797,0.336275518290242
2009,6,2009.493151,-0.0103245159785986,-0.832288147516067,-0.00802411664416038,-0.075309726383189,0.905297474564818,0.651530623375153
2009,7,2009.578082,0.684997660264783,-0.812229629498938,-0.00922754520240229,-0.075309726383189,1.58176456134931,1.58831635476375
2009,8,2009.663014,-0.0518176782007068,-0.885711562055081,-0.00974330029073749,-0.075309726383189,0.9189469105283,0.496275519591053
2009,9,2009.745205,-0.928595983823518,-0.694972396953044,0.00200004669529981,-0.075309726383189,-0.160313907182585,1.86632656219358
2009,10,2009.830137,-1.59282017574191,-0.81961645540927,-0.0134329329284225,-0.0749017276996046,-0.684869059704609,0.0730102049110799
2009,11,2009.912329,-1.87549543318541,-0.80355004274356,-0.00945236154283601,-0.045850712813298,-1.01664231608571,0.270816330702937
2009,12,2009.99726,-3.13031799737602,-0.483680611262795,0.00538551601432242,0.0659481748632613,-2.7179710769908,0.0714795933580216
2010,1,2010.082192,-1.04663700483653,-0.4627292574434,-0.0119121166217057,0.63171915863147,-1.20371478940289,0.0990816341370952
2010,2,2010.158904,-1.4621775657118,-0.303402106060336,0.0456276389328706,1.09672215964095,-2.30112525822528,0.584489803533165
2010,3,2010.243836,-1.28899388045659,-0.0346001367857614,0.00624510778710444,0.00736983092180426,-1.26800868237974,0.49785715171269
2010,4,2010.326027,-0.900041332545857,-0.15151085968313,-0.0105103207177306,-0.0751902535946254,-0.66282989855037,0.302959190096174
2010,5,2010.410959,0.143395817192751,-0.20373497327004,0.00284641411931475,-0.075309726383189,0.419594102726666,1.22515308406888
2010,6,2010.493151,0.627624947006316,0.482830970826223,0.0367540053788127,-0.075309726383189,0.183349697184469,2.63392861512851
2010,7,2010.578082,0.759646217482911,0.322013525140858,0.0133863327068517,-0.075309726383189,0.49955608601839,1.69244900783714
2010,8,2010.663014,0.0776340680767732,0.253939912446021,-0.0109996268207619,-0.075309726383189,-0.0899964911652966,0.459795925203635
2010,9,2010.745205,-0.502605959297532,0.293307914760369,0.0248651894874784,-0.0753090461110875,-0.745470017434293,1.98015309535727
2010,10,2010.830137,-0.0784286823972313,0.600538852705057,0.00222486297583042,-0.0746752629442481,-0.60651713513387,0.885612262207635
2010,11,2010.912329,0.290564489225934,0.658049514266935,-0.013168443124715,-0.0689247773831404,-0.285391804533146,0.13479592103359
2010,12,2010.99726,0.914092203725402,0.543224301288652,-0.0131552186467452,-0.0360540483947024,0.420077169478197,0.0594897969758936
2011,1,2011.082192,0.123658757693318,0.513902016805776,-0.0135651778220543,-0.00811428526738943,-0.368563796023014,0.013469387997626
2011,2,2011.158904,-0.666774688338765,0.524545327300953,0.00750143462486633,0.0224815459349917,-1.22130299619958,0.280408169302557
2011,3,2011.243836,0.92632959924761,0.512777685093358,-0.00713807581325103,-0.00365543054929363,0.424345420516797,0.0991326548767333
2011,4,2011.326027,2.27071523658376,0.296243984579761,-0.0105764431557372,-0.0750248624428,2.06007255760253,0.451683680800607
2011,5,2011.410959,1.06593342464055,0.198159120103256,0.0012330261590716,-0.075309726383189,0.941851004761409,1.49535716650437
2011,6,2011.493151,2.58366459825172,0.191165196219599,-0.00338232071524258,-0.075309726383189,2.47119144913055,1.34341838815991
2011,7,2011.578082,2.97395359499214,0.0941661751474299,-0.0067810145498213,-0.075309726383189,2.96187816077772,1.02795920153053
2011,8,2011.663014,0.861459168145645,-0.012499654140374,-0.00485023906779544,-0.075309726383189,0.954118787737003,1.49790818843306
2011,9,2011.745205,0.0188795033171309,-0.141946287581786,-0.0110393002993051,-0.075309726383189,0.247174817581411,0.732040828770521
2011,10,2011.830137,-0.27637780934803,-0.230406851389249,-0.0096242798938687,-0.0749166223583494,0.0385699442934371,0.187551023887128
2011,11,2011.912329,0.344849067413545,-0.177128502748729,-0.0109599533339967,-0.0325323439511526,0.565469867447422,0.0958163280344131
2011,12,2011.99726,-1.11831314274398,-0.150844346997359,-0.0020334227078774,0.160304656145644,-1.12574002918439,0.0739285721804719
2012,1,2012.081967,0.30429024478994,-0.144578518185663,-0.0114624839749009,0.317188053425902,0.143143193524602,0.409897967260711
2012,2,2012.161202,0.516430577478592,-0.083439324544679,0.0371375155688179,0.331584714535364,0.23114767191909,0.361734698762243
2012,3,2012.245902,-0.746852079481002,0.0895296531982824,0.00670796496825855,0.19103639718906,-1.0341260948366,0.19571428910582
2012,4,2012.327869,-0.0246749566928882,-0.138313679540923,-0.0130361982393052,-0.0591096408794722,0.185784561966812,0.0539285726199041
2012,5,2012.412568,2.23128390313314,-0.190542755549026,-0.00127962676237782,-0.075309726383189,2.49841601182773,0.500459192662823
2012,6,2012.494536,2.08772575615645,0.101504594597611,0.0216913123738943,-0.075309726383189,2.03983957556813,2.09056125757646
2012,7,2012.579235,2.81447391001979,0.0825086283218751,0.00222486304160638,-0.075309726383189,2.80505014503949,2.72147963436282
2012,8,2012.663934,2.36466662532709,0.00888832641866879,-0.00795799416269467,-0.075309726383189,2.43904601945431,1.96000003249061
2012,9,2012.745902,1.05736716114482,-0.170333214840997,-0.00933334114126894,-0.075309726383189,1.31234344351027,0.222500004550936
2012,10,2012.830601,0.210764791990849,-0.272583529223263,-0.0132742390483122,-0.0749720041995125,0.571594564461937,0.0634693888339157
2012,11,2012.912568,-0.635837577163118,-0.351861882178734,-0.010536769710082,-0.0597916140726575,-0.213647311201645,0.281632656892952
2012,12,2012.997268,-0.210938474895557,-0.247892399998318,-0.00495603501840779,0.120158015677939,-0.07824805555677,0.265051025030564
2013,1,2013.082192,-0.272941885123728,-0.211158351166186,0.0176578427311046,0.361512030660922,-0.440953407349568,0.0310714290382303
2013,2,2013.158904,-0.649972514257366,0.0639814490876892,0.110229271822887,0.105724076318313,-0.929907311486256,0.0905102062362189
2013,3,2013.243836,-0.571323458756708,0.436610019382495,0.082008208658032,-0.0512911279582507,-1.03865055883898,0.0160204085084249
2013,4,2013.326027,-0.492674403256049,0.268336510240753,-0.00954493294265514,-0.0753093012131107,-0.676156679341036,0.258979596015142
2013,5,2013.410959,0.277867153947428,0.446548114892501,0.0679241274774406,-0.075309726383189,-0.161295362039324,2.0854081951842
2013,6,2013.493151,2.03457230527873,1.06897606296262,0.0471352300897631,-0.075309726383189,0.993770738609535,2.4146939214395
2013,7,2013.578082,2.42540876505988,1.24278776030671,0.00599384246254135,-0.075309726383189,1.25193688867382,3.40591842009097
2013,8,2013.663014,0.866374823227048,0.940182220693171,-0.00695293294783681,-0.075309726383189,0.00845526186490275,0.960459201676505
2013,9,2013.745205,-0.692659118605782,0.742118170249853,-0.00872501458381495,-0.075309726383189,-1.35074254788863,0.809183691080888
2013,10,2013.830137,-2.25169306043861,0.551023276280105,-0.0132213410953229,-0.0751025999845653,-2.71439239563883,0.0232653064615264
2013,11,2013.912329,-1.68508513282731,0.461332317928904,-0.00957138187392884,-0.0668975665870216,-2.06994850229526,0.217346942249914
2013,12,2013.99726,-1.09283188341747,0.437322264522644,-0.0116344023188861,-0.0398193542486264,-1.4787003913726,0.0413265310798068
2014,1,2014.082192,-0.84088712229174,0.443853556487051,-0.00520730025605265,0.0298481900984366,-1.30938156862117,0.0192857147517557
2014,2,2014.158904,-1.10211875145724,0.539954760792938,0.0168908220163417,0.0549044694597607,-1.71386880372628,0.150867349969945
2014,3,2014.243836,-1.36335038062275,0.745556715716843,0.0691011077821361,-0.0653186958230681,-2.11268950829866,0.0442857149646294
2014,4,2014.326027,-0.830316411191008,0.535174958864671,-0.0123088513014264,-0.0753031787640185,-1.27787933999023,0.0946428580551731
2014,5,2014.410959,-0.96661325923326,0.276407525118846,-0.0121369329351243,-0.075309726383189,-1.15557412503379,0.0803061237900841
2014,6,2014.493151,-0.123703783794668,0.31368328623385,0.0074088630406396,-0.075309726383189,-0.369486206685968,2.65102044903502
2014,7,2014.578082,-0.490236474483817,0.394757234647896,-0.00362036149840902,-0.075309726383189,-0.806063621250114,1.67943880448536
2014,8,2014.663014,-0.856769165172965,0.225440209275935,-0.00848697378655366,-0.075309726383189,-0.998412674279158,0.422091843317054
2014,9,2014.745205,-0.120531194536512,0.196897217631974,-0.00325007582865825,-0.075309726383189,-0.238868609956638,0.927908183375792
2014,10,2014.830137,-2.94444011673089,0.066708672260169,-0.0121898309057322,-0.075244387345126,-2.9237145707402,0.169285716002389
2014,11,2014.912329,-1.77105942155932,0.0883016795610541,-0.0101135859769322,0.0326515002274108,-1.88189901537086,0.574897969620568
2014,12,2014.99726,-2.43292067691325,0.0643403778049055,-0.0120443615118138,0.188602961645258,-2.6738196548516,0.243928577937186
2015,1,2015.082192,-3.09478193226718,-0.0224872086190801,-0.00740256556527743,0.185030054224813,-3.24992221230764,0.132142858689993
2015,2,2015.158904,-3.66823199977458,-0.019678139906427,-0.00671489221282777,0.214133691224941,-3.85597265888027,0.121122450974523
2015,3,2015.243836,-2.14565677518772,-0.094217304010451,0.00362665853565634,0.0286963615383791,-2.08376249125131,0.0430612248007436
2015,4,2015.326027,-1.82631442311431,-0.147758779240785,-0.003144279929727,-0.0753007127778731,-1.60011065116592,0.512346948588229
2015,5,2015.410959,-2.60718581903971,-0.181227525954014,0.014801352628365,-0.075309726383189,-2.36544991933088,0.813265318370291
2015,6,2015.493151,0.903060379908181,0.0998414119673885,0.00520037324287385,-0.075309726383189,0.873328321081108,1.8968877860478
2015,7,2015.578082,1.8602317489241,0.116725172635269,-0.00383195335969832,-0.075309726383189,1.82264825603172,1.06704083510808
2015,8,2015.663014,1.47842901681636,-0.0542647720137166,0.0176446180205698,-0.075309726383189,1.59035889719269,1.42933675853574
2015,9,2015.745205,0.527516254845116,0.3615089866206,0.0153964550907592,-0.075309726383189,0.225920539516946,3.11739802542998
2015,10,2015.830137,-0.258436275941941,0.101398683013078,-0.0134329329272479,-0.075106467657232,-0.271295558370539,0.167959186168654
2015,11,2015.912329,-1.044388806729,-0.00700093846780772,-0.0131816676250017,-0.074535916830738,-0.949670283805452,0.136683674669844
2015,12,2015.99726,-1.83034133751606,0.02170204182732,-0.00746868809490054,-0.00510704412846711,-1.83946764712001,0.345612251849807
2016,1,2016.081967,-2.40119870836147,0.0252688747741994,-0.0123617492450192,-0.0418923463910042,-2.37221348749964,0.0930102059161481
2016,2,2016.161202,0.041878720404657,0.0020030626843427,-0.00782574933131515,-0.0368040966014414,0.0845055036530709,0.108010205957202
2016,3,2016.245902,-0.483426370545297,-0.0976955685150003,-0.0075480350061787,-0.0748110430492344,-0.303371723974884,0.0563775518186847
2016,4,2016.327869,0.843034775468747,-0.255346747266673,-0.0124278717112155,-0.0753077706009119,1.18611716504755,0.287142860821011
2016,5,2016.412568,2.16949592148279,-0.38071365460538,0.00486976081322845,-0.075309726383189,2.62064954165813,1.09484695494175
2016,6,2016.494536,1.88160582997236,-0.207009557223416,-0.000644851298316114,-0.075309726383189,2.16456996487728,1.35709186269312
2016,7,2016.579235,1.66389145502503,-0.0799677649544563,0.024706495339566,-0.075309726383189,1.7944624510231,2.88719393160878
