"Year","Month","DecYear","TWS","SMS","SWS","SNS","GWS","CRU"
2002,8,2002.663014,-9.16365428402686,1.48887647187563,-0.185867100767906,-7.54247552568541,-2.92418812944918,7.06515707445786
2002,9,2002.745205,-7.71583644836589,2.71308124113845,-0.0835935233673395,-6.94366012821266,-3.40166403792434,6.36529158305694
2002,10,2002.830137,-5.97773594067345,3.69929977917685,-0.468235279930745,-4.29313160330975,-4.9156688366098,3.16755610485248
2002,11,2002.912329,-3.61170597658613,3.49887579004928,-0.498598293443283,-1.10807780252159,-5.50390567067054,2.51141259991
2002,12,2002.99726,-2.71438772648741,3.3011232493604,-0.498932463844839,1.45311649674008,-6.96969500874304,1.30184979863766
2003,1,2003.082192,-1.93767180769698,3.11405335894949,-0.498659315866759,3.97300667554024,-8.52607252631995,2.38882291552197
2003,2,2003.158904,-0.777190520719191,2.9474539037276,-0.49674146834788,7.24325738257642,-10.4711603386753,1.88633411123079
2003,3,2003.243836,1.12997878620455,2.82938986952863,-0.453188894231564,8.5020880440935,-9.74831023318603,1.15695069322672
2003,4,2003.326027,4.32959231517489,3.40529781395879,0.0912357157884848,8.70745437888037,-7.87439559345274,3.01692829933936
2003,5,2003.410959,4.388771491288,6.32177260811086,2.14065340838905,2.86960460555411,-6.94325913076602,2.83968614992005
2003,6,2003.493151,-3.0403768330487,7.43866759405342,1.25789433954062,-4.84486453438771,-6.89207423225504,4.27213011103361
2003,7,2003.578082,-10.4695251573854,2.21943402381555,0.0329244324764505,-7.54144467791961,-5.18043893575779,7.55329610029144
2003,8,2003.663014,-12.1486286829904,0.0665697403586235,-0.231308465006497,-7.5348291529198,-4.44906080542268,5.18963013678923
2003,9,2003.745205,-10.8494178963467,-0.65200863430786,-0.300127226160792,-7.44701366140151,-2.45026837447652,4.27065029571944
2003,10,2003.830137,-9.77652129961288,0.601602139644693,-0.37576306480374,-5.89876551879611,-4.10359485565772,4.56389022215599
2003,11,2003.912329,-8.04601259350543,0.908865659162736,-0.499034167879321,-1.75808579627958,-6.69775828850926,2.72133412457368
2003,12,2003.99726,-5.29631768256672,0.771269848972826,-0.498226347258493,1.71462410410174,-7.28398528838279,2.77893502380816
2004,1,2004.081967,-3.45567787674399,0.646750691977451,-0.498237970575001,5.42812707183357,-9.03231766998001,1.97325115492526
2004,2,2004.161202,1.86142295177561,0.516888419745883,-0.496398580421196,8.46049169558331,-6.61955858313238,2.16547089130889
2004,3,2004.245902,3.014993226832,0.407236641074109,-0.493670006460168,10.3179918385917,-7.21656524637363,2.39211888046008
2004,4,2004.327869,5.21311278321608,0.819579843157744,-0.12901745157313,10.7623204546099,-6.23977006297847,2.21889016991774
2004,5,2004.412568,5.24785031351009,3.43040049080424,2.79306445113721,5.19868941349584,-6.17430404192719,2.84487672600511
2004,6,2004.494536,-1.22928417603956,6.21756561274553,0.97699941087565,-4.06356610344219,-4.36028309621854,4.54086331187877
2004,7,2004.579235,-7.5312712484355,2.57348912016493,-0.0975967149356212,-7.49733139511766,-2.50983225854715,7.80245529183358
2004,8,2004.663934,-9.87464565162902,0.142317156049302,0.00583629141347541,-7.52905358516595,-2.49374551392585,6.3278812776232
2004,9,2004.745902,-5.89166563695414,1.44603827374198,-0.13659585371851,-7.37449671523436,0.173388658256749,5.74323999871053
2004,10,2004.830601,-5.07529684701925,3.36520865037369,-0.406620069310081,-5.39824335356179,-2.63564207452106,4.38144626360838
2004,11,2004.912568,-1.94471003062701,3.50691004594947,-0.491941037845325,-0.41983696607446,-4.53984207265669,2.87701798875236
2004,12,2004.997268,0.825991507870797,3.31486574816664,-0.498993486265219,2.60228097369068,-4.59216172772131,1.37982064902515
2005,1,2005.082192,1.69632135333766,3.09968096463202,-0.498400697032185,5.1337238861816,-6.03868280044377,2.12368838070754
2005,2,2005.158904,2.63798688839304,2.9059669558009,-0.498641880889545,6.62771457647279,-6.3970527629911,0.651132297295359
2005,3,2005.243836,4.72227744450915,2.75996086692663,-0.420797611754873,8.36325976137373,-5.98014557203634,1.61442828066146
2005,4,2005.326027,5.67756623307477,3.35656445487799,0.33483141059968,8.06568839694103,-6.07951802934393,2.98459646006871
2005,5,2005.410959,6.48611331001449,6.17323826847122,2.19394341118162,0.91419271521789,-2.79526108485624,1.7921749192503
2005,6,2005.493151,-2.027040294088,6.30511523059198,0.335104560322961,-6.57312617909785,-2.09413390590509,6.91508981529373
2005,7,2005.578082,-6.66392084401145,1.56371514979299,-0.21139481301693,-7.54541175090978,-0.47082942987772,5.95632296763193
2005,8,2005.663014,-8.60231957267811,-3.11391931125067,-0.258451818480918,-7.53758152161553,2.30763307866901,5.11078484817471
2005,9,2005.745205,-8.79428011668881,-3.92907255077776,-0.355279871855865,-7.46168260742646,2.95175491337128,4.19552698477501
2005,10,2005.830137,-5.11579485029027,-2.40517135169942,-0.380761091523825,-5.25366067239772,2.92379826533069,5.18941713106472
2005,11,2005.912329,-2.47098672758393,-1.7598056043043,-0.498891782231253,-1.66200184560393,1.44971250455555,2.65676014124011
2005,12,2005.99726,-0.563310431295155,-1.88319987294853,-0.499002203753697,1.0565320723235,0.762359573083576,1.47513455612242
2006,1,2006.082192,0.0766981469356671,-2.00498536820837,-0.499025450390585,3.11630886258316,-0.535599897048542,1.17110988561883
2006,2,2006.158904,2.03612184496292,-2.11749332521462,-0.498984768776224,4.42794144148,0.224658497473766,1.44672648104852
2006,3,2006.243836,3.3787418892857,-2.20081298999121,-0.490517181341671,6.20380680983127,-0.133734749212688,1.85829599277856
2006,4,2006.326027,3.96334435189294,-1.90648504956354,-0.0955306698808484,6.8666944053116,-0.901334333974272,1.9839798513115
2006,5,2006.410959,5.45521759265953,0.927527562669174,1.9014367952425,0.941955691466593,1.68429754328126,3.1321076797263
2006,6,2006.493151,-0.566239128022085,1.90615854015064,0.205632417931324,-6.22797020538501,3.54994011928096,4.19466374866631
2006,7,2006.578082,-9.35058507336842,-4.80618734597291,-0.336246688593792,-7.54523532605451,3.33708428725279,3.52156956666254
2006,8,2006.663014,-10.2973499998535,-8.06640881712594,-0.220275029474752,-7.5273446852656,5.51667853201275,5.73424897899542
2006,9,2006.745205,-8.92416559179872,-6.95297698494498,-0.136595855088449,-7.44513826917756,5.61054551741227,4.62551577123291
2006,10,2006.830137,-7.0299330085484,-6.400851496436,-0.484031369654276,-5.33604298317094,5.19099284071282,4.26215254009572
2006,11,2006.912329,-1.82112548240817,-6.12322071730222,-0.495105486285751,-0.267379343084515,5.06458006426431,3.19456283543677
2006,12,2006.99726,-0.507144003914399,-6.19892327799858,-0.499034167879321,2.39985876067087,3.79095468129264,2.70162560715269
2007,1,2007.082192,2.00512785539137,-6.26997684905548,-0.49817694816288,6.2125164274118,2.56076522519793,2.43528031169566
2007,2,2007.158904,3.16994753169672,-6.33014536956701,-0.49869418582093,8.99680170504786,1.0019853820368,1.33760091956421
2007,3,2007.243836,5.92836391477192,-6.38486167385907,-0.492865091692147,9.75663608355123,3.04945459677191,1.38682737772775
2007,4,2007.326027,7.15418757577371,-4.2631445134802,1.17558089860048,5.92342198146049,4.31832920919294,1.81872200484768
2007,5,2007.410959,6.92022669052,-0.359937509008988,1.67687137324632,0.114369101776445,5.48892372450622,5.31475345521764
2007,6,2007.493151,0.407402583948623,2.60407163831217,0.668725762431531,-5.90896680073482,3.04357198393974,5.71377812287198
2007,7,2007.578082,-4.92324013406225,-1.13648541069552,-0.0568221140960966,-7.54333738016417,3.81340477089353,6.1688566081727
2007,8,2007.663014,-5.22111544662585,-2.04001348626386,0.0780490611990776,-7.53841697656075,4.27926595499968,8.73532524622075
2007,9,2007.745205,-3.97709568721805,-0.216673125182967,-0.191640984413946,-7.42455181569244,3.8557702380713,4.88813909500704
2007,10,2007.830137,-4.17673012274145,0.734325829819847,-0.440856553513534,-4.80887316048662,0.338673761438858,4.79311667899914
2007,11,2007.912329,-1.36629965593195,0.716555768882881,-0.497127943672562,0.792330226393199,-2.37805770753547,3.05075117376353
2007,12,2007.99726,1.18845261559426,0.511960204222946,-0.498755208240793,4.18101063913044,-3.00576301951833,3.00312784969005
2008,1,2008.081967,4.69610595256439,0.322041774681465,-0.498891782230995,7.53301731187417,-2.66006135176025,1.58837446717403
2008,2,2008.161202,6.12277333414252,0.153720221153958,-0.493786239603573,10.2102922365245,-3.74745288393236,1.72997760879619
2008,3,2008.245902,9.39515655897309,0.14576322268277,-0.33679298357489,12.69648935832,-3.11030303845479,2.61295968299489
2008,4,2008.327869,12.0056161778356,0.700655422566851,0.156474495975667,13.1850448576834,-2.03655859839027,2.45526910523128
2008,5,2008.412568,9.51339808926184,4.40414713344833,3.00355984081551,3.61036340956882,-1.50467229457082,2.0282063115338
2008,6,2008.494536,2.48409918466196,5.41365357903689,1.15839001123223,-5.04983184744677,0.961887441839608,6.06310549124474
2008,7,2008.579235,-1.84460086228503,2.3749432564617,-0.0626076196881896,-7.51181752666379,3.35488102760525,8.66219745238266
2008,8,2008.663934,-1.18310347890434,1.98246210940817,-0.0114504909352507,-7.54103083813332,4.38691574075607,8.59383423039731
2008,9,2008.745902,-3.39864984374227,1.64646207141302,-0.367626741738823,-7.45629099724655,2.77880582383009,3.23991037249031
2008,10,2008.830601,-3.04488756228069,2.21947514368346,-0.407610957165723,-5.92216350407059,1.06541175527215,4.54496644601694
2008,11,2008.912568,-0.620447702277425,2.34653410413407,-0.489107854014042,-1.7364740933563,-0.741399859041153,4.38171532271689
2008,12,2008.997268,3.96036374259176,2.14096156185317,-0.498697091646637,2.45912451321519,-0.14102524082997,2.80341932752207
2009,1,2009.082192,6.52016139186507,1.92594573570273,-0.498078149940685,5.97496633342314,-0.882672527320113,1.56605384093229
2009,2,2009.158904,6.63072605070454,1.72840614182866,-0.498531459356003,7.55934244533041,-2.15849107709853,1.2038116814577
2009,3,2009.243836,7.72326915956725,1.56973052474215,-0.409043531000163,8.82918446828182,-2.26660230245655,1.37655831692999
2009,4,2009.326027,8.54651295676719,3.15830168709693,1.79253210952207,6.06940113957972,-2.47372197943154,2.42488793802903
2009,5,2009.410959,7.49073471976902,6.12689074471994,1.65452844950896,0.541455076929741,-0.832139551389621,4.74642384137808
2009,6,2009.493151,2.59777520707477,7.85633544156436,1.30420454568637,-5.82395953741373,-0.738805242762243,5.23468619013047
2009,7,2009.578082,-4.78844781706836,2.12713251801149,-0.213914168374074,-7.53699682596314,0.835330659257364,5.34766824534121
2009,8,2009.663014,-6.9098089432745,-3.01591950606538,-0.262880301827492,-7.54314365096115,3.91213451557952,4.80930501313488
2009,9,2009.745205,-7.71051686191993,-3.84487517372843,-0.180819674776708,-7.46287324682061,3.77805123340582,4.88674895752706
2009,10,2009.830137,-5.66931355368522,-2.50113276937818,-0.408256051057083,-6.87828888374843,4.11836415049848,2.67565026844564
2009,11,2009.912329,-4.06501007414653,-2.60142605645173,-0.498981862947936,-3.76767733979368,2.80307518504681,2.8362332289529
2009,12,2009.99726,-1.89478424077325,-1.76296939118494,-0.499034167879321,-1.41354821011874,1.78076752840976,1.63778029674906
2010,1,2010.082192,-0.786468881539543,-1.89355967732756,-0.499019638731685,1.39982252959998,0.206287904919722,2.04390138147123
2010,2,2010.158904,0.0828012203141121,-1.99819613741585,-0.499013827072528,4.7353224444792,-2.15531125967671,0.956109882069276
2010,3,2010.243836,0.497895290298856,-2.07728491808735,-0.48555111845015,5.66791282132887,-2.60718149449252,1.13267939216353
2010,4,2010.326027,1.22566914640553,-1.40895883177361,0.626213469977699,3.81605131235643,-1.80763680415498,1.52634531783416
2010,5,2010.410959,4.24216270504893,1.94783453453883,1.17694372749306,-3.83448598911659,4.95187043213363,3.35147987662944
2010,6,2010.493151,-0.318193688259684,2.42830788739393,0.312659930249477,-7.18989056871648,4.13072906281339,6.48226467419098
2010,7,2010.578082,-4.92851699701558,-1.28735516521361,-0.0139582219933397,-7.54418093579193,3.9169773259833,8.2145853363345
2010,8,2010.663014,-6.10548320739271,-2.45393685660755,0.0232218688545453,-7.53279269986113,3.85802448022143,6.92724226536772
2010,9,2010.745205,-3.72637021143629,-1.24713422214704,-0.226269755428061,-7.07847134119709,4.82550510733591,5.37724223628707
2010,10,2010.830137,-1.71712623001391,0.123924526214733,-0.405998221647312,-4.81129447681737,3.37624194223603,3.85941710600404
2010,11,2010.912329,1.22266412697329,0.154178645354884,-0.488869575915545,0.78802259326266,0.769332464271291,3.51213010458668
2010,12,2010.99726,2.59116139417024,0.0136005894385381,-0.499034167879321,3.28578163481364,-0.209186662202619,1.79533635377884
2011,1,2011.082192,4.06253013995237,-0.153089563832555,-0.499034167879321,5.19644018806969,-0.481786316405444,1.43225338822523
2011,2,2011.158904,5.5338988857345,-0.301234915434913,-0.499022544561006,7.37060425618055,-1.03644791045013,1.37929374519485
2011,3,2011.243836,7.86397458978439,-0.351643615797362,-0.37713461655151,9.3108723818429,-0.718119559709642,1.52008970954493
2011,4,2011.326027,10.1150391757274,1.39620040338737,2.69584119930081,7.20366992506496,-1.18067235202573,2.58030273390458
2011,5,2011.410959,5.7587988161634,5.10563688396138,2.4205835905621,-2.0695216467487,0.302099988388623,3.37091934034108
2011,6,2011.493151,-0.326236437417211,1.87024753707474,0.311218634681502,-7.23340456097442,4.72570195180097,4.86602026015654
2011,7,2011.578082,-5.25176795407704,-1.91653584170702,-0.0207346147604925,-7.54484285896219,4.23034536135267,8.14789250934071
2011,8,2011.663014,-4.37745064526105,-2.51569047138229,-0.0988113520453797,-7.54049024434621,5.77754142251283,8.65225351209598
2011,9,2011.745205,-4.68795712849199,-2.34270376167156,-0.342581396405472,-7.47360132977015,5.47092935935518,3.05292606257537
2011,10,2011.830137,-4.04448364645092,-2.19049790244666,-0.364601773006166,-6.26848768792595,4.77910371692785,4.09634535772383
2011,11,2011.912329,-3.03170684214911,-2.06863654667152,-0.498717432452398,-3.25965206992181,2.79529920689662,2.74512336467948
2011,12,2011.99726,0.87643733231866,-2.24136762344717,-0.499034167879321,-0.290226059379424,3.90706518302457,2.13385654041051
2012,1,2012.081967,2.6386487040239,-2.38071087611831,-0.499031262049742,2.62964643667382,2.88874440551814,1.6690583271296
2012,2,2012.161202,3.54929797262115,-2.50331839286626,-0.499034167879321,4.83511096997931,1.71653956338743,1.53209644010783
2012,3,2012.245902,4.74513507531825,-2.58530709986395,-0.473622688260361,5.75369446956274,2.05037039387983,1.27773544783015
2012,4,2012.327869,6.25473498388725,-1.52818855085648,0.125812181906315,4.47122143741965,3.18588991541776,2.71563906364911
2012,5,2012.412568,2.59653381602706,1.81440055914591,2.76495636872198,-1.72822231961321,-0.254600792227612,3.87204041801761
2012,6,2012.494536,-1.85113969861937,0.72949224464896,0.308722530945729,-6.77634630481108,3.88699183059702,3.53899109513236
2012,7,2012.579235,-7.06257809530447,-5.6427998861156,-0.3485586882983,-7.54541075640824,6.47419123551767,3.59328481830289
2012,8,2012.663934,-9.50154013879511,-9.93795280568469,-0.358740715528608,-7.53441874857465,8.32957213099284,4.72632294813079
2012,9,2012.745902,-8.89949332333658,-9.40968397931601,-0.293801235222305,-7.47547399399242,8.27946588519415,5.186995596736
2012,10,2012.830601,-6.4749793403575,-8.39106256418899,-0.462098167885713,-5.83443609048683,8.21261748220403,3.45994400742877
2012,11,2012.912568,-4.05046535737841,-8.2354690505484,-0.499002203753955,-2.86959285837902,7.55359875530297,2.35190586733711
2012,12,2012.997268,-2.83708780628122,-8.28961778186562,-0.499034167879321,-0.853495767781912,6.80505991124564,1.08411436676979
2013,1,2013.082192,-0.346190432117977,-8.33623254967043,-0.498987674605803,1.64632878180327,6.84270101035499,1.92310541507375
2013,2,2013.158904,0.735250403037703,-8.37279045890198,-0.499034167879321,3.9012628446755,5.7058121851435,1.62250002921964
2013,3,2013.243836,2.27252706675016,-8.38542105213075,-0.491371495250729,6.03440951728785,5.11491009684378,1.78002245134837
2013,4,2013.326027,3.80980373046261,-7.03039067987303,1.08009534163161,3.91336846998204,5.84673059872198,2.21624442921626
2013,5,2013.410959,4.83178211346053,-2.69704867169395,1.08579948104192,-4.80980824254235,11.2528395466549,4.00741038584388
2013,6,2013.493151,-1.99301063246835,-3.97677007796986,-0.219452678334543,-7.44372668489084,9.6469388087269,5.99932745604237
2013,7,2013.578082,-5.44484949819188,-8.47685548883316,-0.402894795909616,-7.54545431564428,10.9803551021952,4.01438347838919
2013,8,2013.663014,-5.07554453448702,-13.2382851370347,-0.417871441444173,-7.5417487970533,16.1223608410452,4.87037003200685
2013,9,2013.745205,-4.70623957078216,-12.5636118895637,-0.38840923524816,-7.29162825453157,15.5374098085613,5.07316151841339
2013,10,2013.830137,-4.3369346070773,-11.9610251388575,-0.477042849525893,-5.02186501822914,13.1229983995353,3.60787002013938
2013,11,2013.912329,1.6576844051909,-11.5444009453426,-0.490307961639358,-0.668068764939261,14.3604620771121,4.34711891781589
2013,12,2013.99726,5.54255515208885,-11.5391294822932,-0.49866803335085,4.59377208787514,12.9865805798578,3.00909197752786
2014,1,2014.082192,7.29561971783778,-11.5623839628503,-0.498946992991184,7.45917857756814,11.8977720961111,1.86647985403848
2014,2,2014.158904,9.70678994753037,-11.5855496616474,-0.498967333799784,9.93700355077289,11.8543033922047,1.68478702584724
2014,3,2014.243836,12.117960177223,-11.3873533282412,-0.422599226508707,11.1929988316331,12.7349139003398,1.67996639526478
2014,4,2014.326027,12.9079733480245,-9.364496115408,0.96948202682636,7.46707113670946,13.8359162998967,2.85668166485603
2014,5,2014.410959,14.7060476776501,-7.06916192629345,1.19244052548334,-0.440924514815905,21.0236935932761,3.73143503997358
2014,6,2014.493151,7.23132760584387,-7.11839583241819,0.123693830940191,-6.18105726613893,20.4070868734608,4.78754492051933
2014,7,2014.578082,2.59363685542468,-11.525345055201,-0.264033916409248,-7.54244093496996,21.9254567620049,6.4128924853064
2014,8,2014.663014,-2.04405389499451,-12.0508948236938,-0.137938346748258,-7.53050709666056,17.6752863721081,8.43586337683981
2014,9,2014.745205,-2.35136474429234,-10.0032325929156,-0.298999764383601,-7.26328004768594,15.2141476606928,4.57867721271087
2014,10,2014.830137,-0.191771480289003,-9.32891816540617,-0.490700248633006,-5.50121324752194,15.1290601812721,3.76863234641841
2014,11,2014.912329,3.8091818203206,-9.3026714483418,-0.497377845012206,-0.432223712331335,14.0414548260059,3.33707404713994
2014,12,2014.99726,5.7451079799642,-9.35953127470185,-0.499034167879321,3.04160585985875,12.5620675626866,2.9699552062381
2015,1,2015.082192,7.68103413960779,-9.40025982482217,-0.499034167879321,6.87517431482356,10.7051538174857,2.71263457509969
2015,2,2015.158904,9.9285380336827,-9.44282068648614,-0.498790078191867,10.8604291345482,9.00971966381255,2.09556057602835
2015,3,2015.243836,14.1993286929872,-9.35539747948002,-0.456321378948727,13.3514978266058,10.6595497248101,2.60234309376088
2015,4,2015.326027,16.566096130051,-7.35670736286071,1.2384456179273,11.3120997200607,11.3722581549236,2.79862112052772
2015,5,2015.410959,18.1228778950114,-2.12315086533604,1.8201927030571,0.0829626788113835,18.342873378479,3.19794848874011
2015,6,2015.493151,5.4841328103324,-3.21946181324499,0.0230126491958497,-6.9262975399602,15.6068795143417,4.89121084320171
2015,7,2015.578082,-0.808444860295817,-8.34754740570091,-0.277636105701553,-7.54570955938629,15.3624482104929,6.87471985410682
2015,8,2015.663014,-1.25674905585397,-10.2735019921956,-0.327354849652832,-7.53971624970489,16.8838240356993,7.7534082044935
2015,9,2015.745205,0.430403877650286,-9.79949030730155,-0.338922957204297,-7.36554858259806,17.9343657247542,4.40057181435316
2015,10,2015.830137,2.19807384305405,-8.58942014477111,-0.437171961353974,-5.18746865506914,16.4121346042483,4.46631174237204
2015,11,2015.912329,3.96574380845781,-8.43184504738504,-0.499008015412854,-1.9436052011827,14.8402020724384,2.07774667504657
2015,12,2015.99726,5.73341377386157,-8.51473956337625,-0.498880158908292,1.4962285014521,13.250804994694,3.40928256746899
2016,1,2016.081967,5.08693866237723,-8.58826188907161,-0.499028356220164,3.94659903343233,10.2276298742367,1.06087445557919
2016,2,2016.161202,8.58572678543883,-8.65030466579736,-0.498357109582568,5.82008458151161,11.9143039793071,2.21397986027157
2016,3,2016.245902,9.82545580321635,-8.50572241081986,-0.386860427464302,8.23121563548749,10.486823006013,2.04729824151693
2016,4,2016.327869,12.0085110373552,-6.68542622756464,1.09834104437764,6.16338391266346,11.4322123078787,1.7056726731527
2016,5,2016.412568,14.191566271494,-4.10415766868289,1.87613283005797,0.153261640738921,16.26632946938,3.606692886406
2016,6,2016.494536,8.04866607701074,-4.61714682302066,0.512214872545027,-6.78391861866221,18.9375166461486,2.27007851654104
2016,7,2016.579235,3.31004081063099,-11.5975680155705,-0.430776230897893,-7.54576749371279,22.8841525508121,3.42307181208658
